<?xml version="1.0" encoding="iso-8859-1"?>
<!-- Generator: Adobe Illustrator 19.0.0, SVG Export Plug-In . SVG Version: 6.00 Build 0)  -->
<svg version="1.1" id="Layer_1" xmlns="http://www.w3.org/2000/svg" xmlns:xlink="http://www.w3.org/1999/xlink" x="0px" y="0px"
	 viewBox="0 0 512.001 512.001" style="enable-background:new 0 0 512.001 512.001;" xml:space="preserve">
<path style="fill:#D2E3F7;" d="M363.749,307.114l45.706,67.827l-38.916,14.684l-89.614-58.336
	c-20.335,3.618-41.306,5.729-61.864,5.729c-59.341,0-122.188-17.554-163.047-38.425c10.329-11.01,16.65-25.807,16.65-42.088
	c0-16.281-6.32-31.077-16.65-42.077l-0.011-0.011c35.957-18.358,88.944-34.171,141.596-37.688c7.18-0.48,14.349-0.737,21.463-0.737
	c28.42,0,57.632,4.02,84.857,10.508c24.891,5.941,48.107,13.925,67.526,22.78l86.588-45.505l42.803,22.736
	c0,0-62.959,72.953-91.389,95.075v0.011C398.344,290.342,382.554,299.164,363.749,307.114z M157.821,238.706
	c0-11.1-9-20.1-20.1-20.1s-20.1,9-20.1,20.1c0,11.1,9,20.1,20.1,20.1S157.821,249.806,157.821,238.706z"/>
<g>
	<path style="fill:#AACEF7;" d="M309.232,106.882l23.785,28.531l-29.101,51.088c-27.225-6.488-56.437-10.508-84.857-10.508
		c-7.113,0-14.282,0.257-21.463,0.737l-0.045-0.737L309.232,106.882z"/>
	<path style="fill:#AACEF7;" d="M253.275,365.148c10.486,4.88,15.042,17.342,10.162,27.839
		c-4.88,10.486-17.342,15.042-27.839,10.162c-10.486-4.88-15.042-17.342-10.162-27.839
		C230.316,364.825,242.778,360.268,253.275,365.148z"/>
	<path style="fill:#AACEF7;" d="M165.694,365.148c10.497,4.88,15.042,17.342,10.162,27.839
		c-4.88,10.486-17.342,15.042-27.828,10.162c-10.497-4.88-15.053-17.342-10.173-27.839
		C142.735,364.825,155.197,360.268,165.694,365.148z"/>
	<circle style="fill:#AACEF7;" cx="137.721" cy="238.703" r="20.1"/>
</g>
<path style="fill:#FB7B76;" d="M56.013,214.429c10.329,10.999,16.65,25.795,16.65,42.077c0,16.281-6.32,31.077-16.65,42.088
	c-27.359-13.97-44.846-29.413-44.846-42.088c0-12.674,17.487-28.118,44.835-42.088L56.013,214.429z"/>
<path d="M456.644,219.214c-1.504,1.635-3.028,3.284-4.567,4.941c-4.198,4.519-3.936,11.584,0.582,15.782
	c2.151,1.997,4.877,2.985,7.598,2.985c2.996,0,5.984-1.198,8.184-3.567c1.562-1.683,3.111-3.359,4.639-5.019
	c4.175-4.538,3.882-11.603-0.658-15.779C467.881,214.381,460.819,214.676,456.644,219.214z"/>
<path d="M341.594,128.263L317.809,99.73c-3.56-4.271-9.722-5.273-14.453-2.346l-110.71,68.513
	c-49.083,3.865-101.752,18.168-141.723,38.576C27.692,216.34,0,235,0,256.506c0,21.512,27.698,40.169,50.933,52.033
	c0.006,0.002,0.011,0.006,0.017,0.009c0.045,0.022,0.088,0.045,0.133,0.066c26.85,13.692,67.123,28.035,112.263,35.099l-3.915,8.422
	c-12.999-1.03-25.886,5.97-31.702,18.47c-3.618,7.782-3.988,16.506-1.042,24.566c2.945,8.059,8.852,14.489,16.63,18.105
	c4.307,2.004,8.906,3.013,13.521,3.013c3.716,0,7.444-0.654,11.038-1.968c8.056-2.944,14.486-8.846,18.104-16.622
	c0-0.001,0.001-0.002,0.001-0.003c3.617-7.781,3.99-16.502,1.05-24.561c-1.614-4.422-4.125-8.351-7.343-11.597l6.932-14.911
	c10.669,1.003,21.514,1.56,32.44,1.56c9.901,0,20.075-0.479,30.444-1.414l-2.492,5.361c-12.998-1.028-25.885,5.97-31.702,18.469
	c-7.466,16.057-0.478,35.199,15.58,42.673c4.37,2.03,8.965,2.992,13.493,2.992c12.115,0,23.74-6.882,29.178-18.569
	c0,0,0.001-0.002,0.001-0.003c5.811-12.498,2.863-26.863-6.3-36.143l8.396-18.058c0.938-0.15,1.882-0.316,2.823-0.472l85.966,55.963
	c1.838,1.195,3.958,1.808,6.094,1.808c1.329,0,2.664-0.238,3.941-0.719l38.916-14.683c3.194-1.205,5.66-3.805,6.698-7.057
	c1.036-3.252,0.528-6.799-1.379-9.63l-38.297-56.837c14.348-6.834,26.622-14.161,35.935-21.495c0.047-0.037,0.087-0.079,0.133-0.116
	c7.737-6.045,18.396-15.996,31.698-29.592c4.313-4.409,4.236-11.478-0.173-15.792c-4.408-4.313-11.477-4.234-15.792,0.173
	c-12.703,12.986-22.674,22.315-29.632,27.73c-0.045,0.035-0.084,0.075-0.128,0.111c-8.668,6.814-20.544,13.734-34.669,20.239
	l-15.137-22.464c-3.446-5.116-10.389-6.468-15.501-3.023c-5.116,3.446-6.468,10.386-3.023,15.501l58.177,86.342l-20.416,7.703
	L216.299,275.89c-5.168-3.366-12.086-1.902-15.45,3.266c-3.365,5.169-1.903,12.086,3.265,15.452l45.633,29.707
	c-10.481,1.014-20.74,1.538-30.685,1.538c-47.171,0-102.896-12.153-145.904-31.439c6.938-11.325,10.673-24.377,10.673-37.908
	c0-13.534-3.734-26.584-10.672-37.904c36.588-16.367,83.264-27.929,125.187-30.73c7.055-0.472,14.026-0.712,20.716-0.712
	c25.811,0,54.26,3.529,82.265,10.203c0.098,0.023,0.197,0.048,0.295,0.071c0.018,0.003,0.036,0.009,0.054,0.013
	c23.3,5.582,45.816,13.184,65.14,21.994c13.431,6.121,25.08,12.753,33.684,19.177c4.939,3.69,11.936,2.674,15.628-2.267
	c3.691-4.941,2.676-11.938-2.267-15.628c-5.279-3.942-11.32-7.827-18.058-11.628l62.203-32.69l25.15,13.36
	c-1.711,1.94-3.618,4.094-5.684,6.415c-4.099,4.607-3.687,11.666,0.921,15.765c4.609,4.1,11.667,3.686,15.765-0.921
	c9.021-10.141,15.071-17.147,15.131-17.217c2.219-2.572,3.148-6.013,2.523-9.352c-0.625-3.339-2.737-6.212-5.738-7.805
	l-42.803-22.736c-3.261-1.733-7.165-1.741-10.434-0.023l-81.803,42.99c-15.406-6.695-32.459-12.658-50.18-17.55l21.869-38.393
	C345.027,136.894,344.577,131.841,341.594,128.263z M165.732,388.276c-1.102,2.37-3.063,4.167-5.519,5.065
	c-2.454,0.897-5.109,0.783-7.476-0.318c-2.373-1.102-4.174-3.063-5.072-5.52c-0.898-2.456-0.785-5.113,0.316-7.481
	c1.657-3.562,5.2-5.659,8.893-5.659c1.38,0,2.782,0.294,4.114,0.912c2.371,1.101,4.169,3.06,5.065,5.514
	C166.95,383.244,166.833,385.903,165.732,388.276z M253.313,388.276c-2.277,4.893-8.112,7.022-13.004,4.749
	c-4.893-2.277-7.024-8.113-4.749-13.004c1.658-3.562,5.202-5.66,8.894-5.66c1.378,0,2.778,0.294,4.108,0.911
	c0.002,0.001,0.003,0.002,0.006,0.002h0.001C253.457,377.555,255.586,383.384,253.313,388.276z M306.864,121.479l12.617,15.137
	l-21.171,37.169c-21.003-4.557-42.129-7.438-62.24-8.494L306.864,121.479z M22.334,256.506c0-4.467,8.364-15.165,30.752-27.843
	c5.457,8.194,8.41,17.827,8.41,27.843c0,10.011-2.95,19.642-8.405,27.842C30.699,271.672,22.334,260.974,22.334,256.506z"/>
<path d="M106.454,238.707c0,17.24,14.027,31.267,31.267,31.267s31.267-14.027,31.267-31.267s-14.027-31.267-31.267-31.267
	S106.454,221.466,106.454,238.707z M146.654,238.707c0,4.926-4.008,8.933-8.933,8.933c-4.926,0-8.933-4.008-8.933-8.933
	s4.008-8.933,8.933-8.933C142.646,229.774,146.654,233.782,146.654,238.707z"/>
<path d="M210.026,218.505c-6.167,0-11.167,5.001-11.167,11.167v15.545c0,6.166,4.999,11.167,11.167,11.167
	s11.167-5.001,11.167-11.167v-15.545C221.193,223.505,216.194,218.505,210.026,218.505z"/>
<path d="M242.321,229.672v15.545c0,6.166,4.999,11.167,11.167,11.167c6.166,0,11.167-5.001,11.167-11.167v-15.545
	c0-6.166-5.001-11.167-11.167-11.167C247.32,218.505,242.321,223.505,242.321,229.672z"/>
<path d="M285.782,229.672v15.545c0,6.166,5.001,11.167,11.167,11.167c6.166,0,11.167-5.001,11.167-11.167v-15.545
	c0-6.166-5.001-11.167-11.167-11.167C290.782,218.505,285.782,223.505,285.782,229.672z"/>
<g>
</g>
<g>
</g>
<g>
</g>
<g>
</g>
<g>
</g>
<g>
</g>
<g>
</g>
<g>
</g>
<g>
</g>
<g>
</g>
<g>
</g>
<g>
</g>
<g>
</g>
<g>
</g>
<g>
</g>
</svg>
